<?xml version="1.0" encoding="UTF-8"?>
<svg width="228px" height="438px" viewBox="0 0 228 438" version="1.1" xmlns="http://www.w3.org/2000/svg" xmlns:xlink="http://www.w3.org/1999/xlink">
    <!-- Generator: Sketch 41 (35326) - http://www.bohemiancoding.com/sketch -->
    <title>facebook</title>
    <desc>Created with Sketch.</desc>
    <defs></defs>
    <g id="Page-1" stroke="none" stroke-width="1" fill="none" fill-rule="evenodd">
        <g id="facebook" fill="#000000">
            <g id="Page-1">
                <g id="Untitled-1-01">
                    <path d="M67.1875,437.6875 L67.1875,238.09375 L0.0625,238.09375 L0.0625,160.34375 L67.1875,160.34375 L67.1875,102.96875 C67.1875,36.375 107.84375,0.15625 167.21875,0.15625 C195.65625,0.15625 220.125,2.25 227.28125,3.21875 L227.28125,72.78125 L186.09375,72.8125 C153.8125,72.8125 147.53125,88.15625 147.53125,110.6875 L147.53125,160.375 L224.5625,160.375 L214.5625,238.125 L147.53125,238.125 L147.53125,437.71875 L67.1875,437.6875 Z" id="White_2_"></path>
                </g>
            </g>
        </g>
    </g>
</svg>