<svg xmlns="http://www.w3.org/2000/svg" width="24" height="30" viewBox="0 0 24 30">
  <defs>
    <style>
      .cls-1 {
        fill-rule: evenodd;
        opacity: 0.3;
      }
    </style>
  </defs>
  <path id="order-history" class="cls-1" d="M400.552,476H384v30h24V483.293ZM401,478l5.257,5H401v-5Zm-15.979,27V477H400v7h6.979v21H385.021Zm17.468-18h-7.976a0.5,0.5,0,0,0,0,1h7.976A0.5,0.5,0,0,0,402.489,487ZM392.1,485.109l-2.39,1.721-0.76-.684a0.6,0.6,0,0,0-.786,0,0.465,0.465,0,0,0,0,.707l1.112,1a0.6,0.6,0,0,0,.739.037l2.779-2a0.467,0.467,0,0,0,.087-0.7A0.6,0.6,0,0,0,392.1,485.109ZM402.383,493h-8.17a0.5,0.5,0,1,0,0,1h8.17A0.5,0.5,0,1,0,402.383,493ZM392.1,491.109l-2.39,1.721-0.76-.684a0.6,0.6,0,0,0-.786,0,0.465,0.465,0,0,0,0,.707l1.112,1a0.6,0.6,0,0,0,.739.037l2.779-2a0.467,0.467,0,0,0,.087-0.7A0.6,0.6,0,0,0,392.1,491.109ZM402.489,499h-7.976a0.5,0.5,0,0,0,0,1h7.976A0.5,0.5,0,0,0,402.489,499ZM392.1,497.109l-2.39,1.721-0.76-.684a0.6,0.6,0,0,0-.786,0,0.465,0.465,0,0,0,0,.707l1.112,1a0.6,0.6,0,0,0,.739.037l2.779-2a0.467,0.467,0,0,0,.087-0.7A0.6,0.6,0,0,0,392.1,497.109Z" transform="translate(-384 -476)"/>
</svg>
