<svg xmlns="http://www.w3.org/2000/svg" width="14" height="16" viewBox="0 0 14 16">
  <defs>
    <style>
      .cls-1 {
        fill: #632554;
        fill-rule: evenodd;
      }
    </style>
  </defs>
  <path id="user" class="cls-1" d="M1234,37a4,4,0,1,1-4,4A4,4,0,0,1,1234,37Zm-7,16a7,7,0,0,1,14,0" transform="translate(-1227 -37)"/>
</svg>
